

{"error":"catIds","route":"/all","requestType":"POST","function":"validParams","date":"2019-02-19T16:14:36.401Z"}

{"error":"catIds","route":"/all","requestType":"POST","function":"validParams","date":"2019-02-19T16:15:51.048Z"}

{"error":"catIds","route":"/all","requestType":"POST","function":"validParams","date":"2019-02-19T16:18:15.658Z"}

{"error":{},"route":"/orders","requestType":"POST","function":"getOrders","date":"2019-02-19T16:27:49.653Z"}

{"error":{},"route":"/orders","requestType":"POST","function":"getOrders","date":"2019-02-19T16:28:58.048Z"}

{"error":"catIds","route":"/all","requestType":"POST","function":"validParams","date":"2019-02-19T16:48:12.503Z"}

{"error":"catIds","route":"/all","requestType":"POST","function":"validParams","date":"2019-02-19T16:48:14.459Z"}

{"error":"catIds","route":"/all","requestType":"POST","function":"validParams","date":"2019-02-19T16:48:30.830Z"}

{"error":"catIds","route":"/all","requestType":"POST","function":"validParams","date":"2019-02-19T16:50:14.370Z"}

{"error":"cat_id","route":"/all","requestType":"POST","function":"validParams","date":"2019-02-23T14:25:49.924Z"}

{"error":"cat_id","route":"/all","requestType":"POST","function":"validParams","date":"2019-02-23T14:27:04.338Z"}

{"error":"cat_id","route":"/all","requestType":"POST","function":"validParams","date":"2019-02-23T14:27:04.386Z"}

{"error":"cat_id","route":"/all","requestType":"POST","function":"validParams","date":"2019-02-23T14:29:00.429Z"}

{"error":"cat_id","route":"/all","requestType":"POST","function":"validParams","date":"2019-02-23T14:29:00.656Z"}

{"error":"Error: \"value\" required in setHeader(\"void\", value)","route":"/sign-up","requestType":"POST","function":"axios","date":"2019-02-28T13:15:54.413Z"}

{"error":"Error: \"value\" required in setHeader(\"void\", value)","route":"/sign-up","requestType":"POST","function":"axios","date":"2019-02-28T13:21:21.939Z"}

{"error":"Error: \"value\" required in setHeader(\"void\", value)","route":"/sign-up","requestType":"POST","function":"axios","date":"2019-02-28T13:24:56.417Z"}

{"error":"f_name","route":"/sign-up","requestType":"POST","function":"validParams","date":"2019-02-28T13:30:43.801Z"}

{"error":"TypeError: Converting circular structure to JSON","route":"/sign-up","requestType":"POST","function":"axios","date":"2019-02-28T14:19:33.379Z"}

{"error":"Error: connect ECONNREFUSED 192.168.88.241:7079","route":"/sign-up","requestType":"POST","function":"axios","date":"2019-03-08T10:59:42.312Z"}

{"error":"Error: connect ECONNREFUSED 192.168.88.241:7079","route":"/sign-up","requestType":"POST","function":"axios","date":"2019-03-08T11:17:08.442Z"}

{"error":"cat_id","route":"/all","requestType":"POST","function":"validParams","date":"2019-03-11T12:48:55.167Z"}

{"error":"cat_id","route":"/all","requestType":"POST","function":"validParams","date":"2019-03-11T12:49:43.059Z"}

{"error":"cat_id","route":"/all","requestType":"POST","function":"validParams","date":"2019-03-11T12:51:09.814Z"}

{"error":"cat_id","route":"/all","requestType":"POST","function":"validParams","date":"2019-03-11T12:52:20.250Z"}

{"route":"/add","requestType":"POST","function":"getProduct","date":"2019-03-22T11:42:34.740Z"}

{"route":"/add","requestType":"POST","function":"getProduct","date":"2019-03-22T13:14:53.255Z"}

{"route":"/add","requestType":"POST","function":"getProduct","date":"2019-03-22T13:39:08.101Z"}

{"route":"/add","requestType":"POST","function":"getProduct","date":"2019-03-22T13:39:35.818Z"}

{"route":"/add","requestType":"POST","function":"getProduct","date":"2019-03-22T13:42:17.670Z"}

{"route":"/add","requestType":"POST","function":"getProduct","date":"2019-03-22T14:31:59.129Z"}

{"route":"/add","requestType":"POST","function":"getProduct","date":"2019-03-22T14:33:53.753Z"}

{"route":"/add","requestType":"POST","function":"getProduct","date":"2019-03-22T14:34:07.401Z"}

{"error":"actionType","route":"/add","requestType":"POST","function":"validParams","date":"2019-03-25T11:47:50.333Z"}

{"error":"prodId","route":"/count","requestType":"POST","function":"validParams","date":"2019-03-25T11:52:25.913Z"}

{"error":"prodId","route":"/count","requestType":"POST","function":"validParams","date":"2019-03-25T11:52:28.934Z"}

{"error":"prodId","route":"/count","requestType":"POST","function":"validParams","date":"2019-03-25T11:52:31.210Z"}

{"error":"prodId","route":"/count","requestType":"POST","function":"validParams","date":"2019-03-25T11:52:33.304Z"}

{"error":"prodId","route":"/count","requestType":"POST","function":"validParams","date":"2019-03-25T11:52:34.199Z"}

{"error":"prodId","route":"/count","requestType":"POST","function":"validParams","date":"2019-03-25T11:52:34.423Z"}

{"error":"prodId","route":"/count","requestType":"POST","function":"validParams","date":"2019-03-25T11:52:34.620Z"}

{"error":"prodId","route":"/count","requestType":"POST","function":"validParams","date":"2019-03-25T11:52:34.916Z"}

{"error":"prodId","route":"/count","requestType":"POST","function":"validParams","date":"2019-03-25T11:52:35.073Z"}

{"error":"prodId","route":"/count","requestType":"POST","function":"validParams","date":"2019-03-25T11:52:35.376Z"}

{"error":"prodId","route":"/count","requestType":"POST","function":"validParams","date":"2019-03-25T11:52:35.628Z"}

{"error":"prodId","route":"/count","requestType":"POST","function":"validParams","date":"2019-03-25T11:52:36.883Z"}

{"error":"prodId","route":"/count","requestType":"POST","function":"validParams","date":"2019-03-25T11:52:44.882Z"}

{"error":"actionType","route":"/add","requestType":"POST","function":"validParams","date":"2019-03-25T11:56:20.655Z"}

{"error":"prodId","route":"/count","requestType":"POST","function":"validParams","date":"2019-03-25T12:09:57.315Z"}

{"error":"prodId","route":"/count","requestType":"POST","function":"validParams","date":"2019-03-25T12:12:05.227Z"}

{"error":"prodId","route":"/count","requestType":"POST","function":"validParams","date":"2019-03-25T12:12:06.756Z"}

{"error":"prodId","route":"/count","requestType":"POST","function":"validParams","date":"2019-03-25T12:15:36.889Z"}

{"error":"prodId","route":"/count","requestType":"POST","function":"validParams","date":"2019-03-25T12:19:38.600Z"}

{"error":"prodId","route":"/count","requestType":"POST","function":"validParams","date":"2019-03-25T12:51:16.324Z"}

{"error":"prodId","route":"/count","requestType":"POST","function":"validParams","date":"2019-03-25T12:51:30.423Z"}

{"error":"prodId","route":"/count","requestType":"POST","function":"validParams","date":"2019-03-25T12:52:34.860Z"}

{"error":"prodId","route":"/count","requestType":"POST","function":"validParams","date":"2019-03-25T12:52:41.233Z"}

{"error":"prodId","route":"/count","requestType":"POST","function":"validParams","date":"2019-03-25T12:52:42.078Z"}

{"error":"prodId","route":"/count","requestType":"POST","function":"validParams","date":"2019-03-25T12:54:22.966Z"}

{"error":"prodId","route":"/count","requestType":"POST","function":"validParams","date":"2019-03-25T12:54:39.812Z"}

{"error":"prodId","route":"/count","requestType":"POST","function":"validParams","date":"2019-03-25T12:54:40.942Z"}

{"error":"prodId","route":"/count","requestType":"POST","function":"validParams","date":"2019-03-25T13:32:48.923Z"}

{"error":"actionType","route":"/count","requestType":"POST","function":"validParams","date":"2019-03-25T13:34:35.306Z"}

{"error":"actionType","route":"/count","requestType":"POST","function":"validParams","date":"2019-03-25T13:35:40.190Z"}

{"error":"actionType","route":"/count","requestType":"POST","function":"validParams","date":"2019-03-25T13:35:43.888Z"}

{"error":"actionType","route":"/count","requestType":"POST","function":"validParams","date":"2019-03-25T13:35:46.598Z"}

{"error":"actionType","route":"/count","requestType":"POST","function":"validParams","date":"2019-03-25T13:35:51.072Z"}

{"error":"actionType","route":"/count","requestType":"POST","function":"validParams","date":"2019-03-25T13:35:56.929Z"}

{"error":"actionType","route":"/count","requestType":"POST","function":"validParams","date":"2019-03-25T13:37:40.717Z"}

{"error":"actionType","route":"/count","requestType":"POST","function":"validParams","date":"2019-03-25T13:37:46.885Z"}

{"error":"actionType","route":"/count","requestType":"POST","function":"validParams","date":"2019-03-25T13:42:56.520Z"}

{"error":"email","route":"/sign-up","requestType":"POST","function":"validParams","date":"2019-03-27T15:38:54.695Z"}

{"error":"Error: Request failed with status code 500","route":"/sign-up","requestType":"POST","function":"axios","date":"2019-03-27T15:48:24.617Z"}

{"error":"Error: Request failed with status code 500","route":"/sign-up","requestType":"POST","function":"axios","date":"2019-03-27T15:52:38.868Z"}

{"error":"Error: Request failed with status code 500","route":"/sign-up","requestType":"POST","function":"axios","date":"2019-03-27T15:55:44.111Z"}

{"error":"Error: Request failed with status code 500","route":"/sign-up","requestType":"POST","function":"axios","date":"2019-03-27T15:59:11.295Z"}

{"error":"country_id","route":"/all","requestType":"POST","function":"validParams","date":"2019-03-28T10:54:47.763Z"}

{"error":"country_id","route":"/all","requestType":"POST","function":"validParams","date":"2019-03-28T10:54:48.601Z"}

{"error":"country_id","route":"/all","requestType":"POST","function":"validParams","date":"2019-03-28T10:55:15.148Z"}

{"error":"country_id","route":"/all","requestType":"POST","function":"validParams","date":"2019-03-28T10:57:20.033Z"}

{"error":"country_id","route":"/all","requestType":"POST","function":"validParams","date":"2019-03-28T11:00:20.072Z"}

{"error":"country_id","route":"/all","requestType":"POST","function":"validParams","date":"2019-03-28T11:00:59.313Z"}

{"error":"country_id","route":"/all","requestType":"POST","function":"validParams","date":"2019-03-28T11:03:09.625Z"}

{"error":"country_id","route":"/all","requestType":"POST","function":"validParams","date":"2019-03-28T11:05:26.571Z"}

{"error":"country_id","route":"/all","requestType":"POST","function":"validParams","date":"2019-03-28T11:05:56.716Z"}

{"error":"country_id","route":"/all","requestType":"POST","function":"validParams","date":"2019-03-28T11:12:40.313Z"}

{"error":"country_id","route":"/all","requestType":"POST","function":"validParams","date":"2019-03-28T11:16:11.891Z"}

{"error":"country_id","route":"/all","requestType":"POST","function":"validParams","date":"2019-03-28T11:16:18.519Z"}

{"error":"country_id","route":"/all","requestType":"POST","function":"validParams","date":"2019-03-28T11:19:30.882Z"}

{"error":"country_id","route":"/all","requestType":"POST","function":"validParams","date":"2019-03-28T11:21:04.587Z"}

{"error":"country_id","route":"/all","requestType":"POST","function":"validParams","date":"2019-03-28T11:21:12.053Z"}

{"error":{},"route":"/catalog","requestType":"POST","function":"getCatalog","date":"2019-03-30T14:02:47.169Z"}

{"error":{},"route":"/catalog","requestType":"POST","function":"getCatalog","date":"2019-03-30T14:07:43.589Z"}

{"error":{},"route":"/catalog","requestType":"POST","function":"getCatalog","date":"2019-03-30T14:07:51.530Z"}

{"error":{},"route":"/catalog","requestType":"POST","function":"getCatalog","date":"2019-03-30T14:08:24.855Z"}

{"error":{},"route":"/catalog","requestType":"POST","function":"getCatalog","date":"2019-03-30T14:08:42.824Z"}

{"error":{},"route":"/catalog","requestType":"POST","function":"getCatalog","date":"2019-03-30T14:08:49.495Z"}

{"error":{},"route":"/catalog","requestType":"POST","function":"getCatalog","date":"2019-03-30T14:09:16.728Z"}

{"error":{},"route":"/catalog","requestType":"POST","function":"getCatalog","date":"2019-03-30T14:09:44.098Z"}

{"error":{},"route":"/catalog","requestType":"POST","function":"getCatalog","date":"2019-03-30T14:11:56.167Z"}

{"error":{},"route":"/catalog","requestType":"POST","function":"getCatalog","date":"2019-03-30T14:12:59.969Z"}

{"error":{},"route":"/catalog","requestType":"POST","function":"getCatalog","date":"2019-03-30T14:13:13.417Z"}

{"error":{},"route":"/catalog","requestType":"POST","function":"getCatalog","date":"2019-03-30T15:28:44.621Z"}

{"route":"/add","requestType":"POST","function":"getProduct","date":"2019-04-04T12:23:41.384Z"}

{"route":"/add","requestType":"POST","function":"getProduct","date":"2019-04-04T12:26:05.259Z"}

{"route":"/add","requestType":"POST","function":"getProduct","date":"2019-04-04T12:28:49.632Z"}

{"route":"/add","requestType":"POST","function":"getProduct","date":"2019-04-04T13:44:28.178Z"}

{"error":{},"route":"/user/passports/all","requestType":"GET","function":"getOrders","date":"2019-04-05T14:06:53.005Z"}

{"error":"prodId","route":"/add","requestType":"POST","function":"validParams","date":"2019-04-19T11:01:29.606Z"}

{"error":"vvach","route":"/sign-up/code","requestType":"POST","function":"validParamsPhoneCode","date":"2019-04-19T11:32:45.418Z"}

{"error":"vvach","route":"/sign-up/code","requestType":"POST","function":"validParamsPhoneCode","date":"2019-04-19T11:34:22.429Z"}

{"error":"vvach","route":"/sign-up/code","requestType":"POST","function":"validParamsPhoneCode","date":"2019-04-19T11:35:16.635Z"}

{"error":"vvach","route":"/sign-up/code","requestType":"POST","function":"validParamsPhoneCode","date":"2019-04-19T11:35:58.706Z"}

{"error":"vvach","route":"/sign-up/code","requestType":"POST","function":"validParamsPhoneCode","date":"2019-04-19T11:36:03.174Z"}

{"error":"vvach","route":"/sign-up/code","requestType":"POST","function":"validParamsPhoneCode","date":"2019-04-19T11:36:05.719Z"}

{"error":"vvach","route":"/sign-up/code","requestType":"POST","function":"validParamsPhoneCode","date":"2019-04-19T11:36:46.059Z"}

{"error":"vvach","route":"/sign-up/code","requestType":"POST","function":"validParamsPhoneCode","date":"2019-04-19T11:36:50.418Z"}

{"error":"vvach","route":"/sign-up/code","requestType":"POST","function":"validParamsPhoneCode","date":"2019-04-19T11:37:43.038Z"}

{"error":"Error: connect ECONNREFUSED 192.168.88.161:3030","route":"/sign-up","requestType":"POST","function":"axios","date":"2019-04-19T12:01:14.079Z"}

{"error":"Error: connect ECONNREFUSED 192.168.88.161:3030","route":"/sign-up","requestType":"POST","function":"axios","date":"2019-04-19T12:01:55.977Z"}

{"error":"TypeError: Cannot read property 'token' of undefined","route":"/sign-up","requestType":"POST","function":"axios","date":"2019-04-19T12:13:51.022Z"}

{"error":"TypeError: Cannot read property 'token' of undefined","route":"/sign-up","requestType":"POST","function":"axios","date":"2019-04-19T12:16:53.211Z"}

{"error":"TypeError: Cannot read property 'token' of undefined","route":"/sign-up","requestType":"POST","function":"axios","date":"2019-04-19T12:20:47.451Z"}

{"error":"Error: read ECONNRESET","route":"/sign-up","requestType":"POST","function":"axios","date":"2019-04-19T14:01:47.103Z"}

{"error":"Error: read ECONNRESET","route":"/sign-up","requestType":"POST","function":"axios","date":"2019-04-19T14:04:14.123Z"}

{"error":"Error: read ECONNRESET","route":"/sign-up","requestType":"POST","function":"axios","date":"2019-04-19T14:07:33.800Z"}

{"error":"Error: connect ECONNREFUSED 192.168.88.161:3030","route":"/sign-up","requestType":"POST","function":"axios","date":"2019-04-19T14:07:38.833Z"}

{"error":"Error: socket hang up","route":"/sign-up","requestType":"POST","function":"axios","date":"2019-04-19T14:09:40.617Z"}

{"error":"Error: socket hang up","route":"/sign-up","requestType":"POST","function":"axios","date":"2019-04-19T14:11:40.516Z"}

{"error":"prodId","route":"/add","requestType":"POST","function":"validParams","date":"2019-04-19T18:17:02.482Z"}

{"route":"/add","requestType":"POST","function":"getProduct","date":"2019-04-22T13:36:10.006Z"}

{"error":"Error: connect ECONNREFUSED 192.168.88.161:3030","route":"/sign-up","requestType":"POST","function":"axios","date":"2019-04-22T16:06:12.373Z"}

{"error":"Error: connect ECONNREFUSED 192.168.88.161:3030","route":"/sign-up","requestType":"POST","function":"axios","date":"2019-04-22T16:06:36.913Z"}