<svg xmlns="http://www.w3.org/2000/svg" width="49.281" height="38.036" viewBox="0 0 49.281 38.036">
  <path id="path-1" d="M49.843,30.111a9.224,9.224,0,0,1-3.321,2.081l-17.545,6.3V33.846l12.912-4.6c1.465-.525,1.69-1.267.5-1.657a8.709,8.709,0,0,0-4.808.249l-8.6,3.03V26.045l.5-.168a29.515,29.515,0,0,1,5.982-1.267,25.519,25.519,0,0,1,11.137,1.326c3.787,1.2,4.213,2.961,3.252,4.175ZM30.647,22.2V10.312c0-1.4-.257-2.681-1.567-3.045-1-.321-1.625.61-1.625,2V39.036l-8.027-2.548V1A96.517,96.517,0,0,1,30.486,4.032c6.8,2.334,9.1,5.239,9.1,11.783C39.588,22.2,35.65,24.613,30.647,22.2ZM4.7,33.361C.812,32.266.165,29.985,1.936,28.671a19.045,19.045,0,0,1,4.423-2.127l11.509-4.092v4.665L9.586,30.081c-1.463.525-1.688,1.268-.5,1.658a8.733,8.733,0,0,0,4.809-.247l3.973-1.442v4.174c-.252.045-.533.09-.793.133a26.041,26.041,0,0,1-12.377-1Zm42.587,1.848a1.881,1.881,0,1,1-1.878,1.882A1.882,1.882,0,0,1,47.286,35.209ZM45.724,37.09a1.565,1.565,0,0,0,1.563,1.563,1.563,1.563,0,0,0,1.563-1.563,1.563,1.563,0,1,0-3.125,0Zm2.13-1.013a.513.513,0,0,1,.31.514.575.575,0,0,1-.082.319.554.554,0,0,1-.158.152.461.461,0,0,1,.125.1.479.479,0,0,1,.074.278l.01.268a.687.687,0,0,0,.019.16.117.117,0,0,0,.059.091l.028.013V38.1h-.405l-.013-.023a.368.368,0,0,1-.027-.082,1.27,1.27,0,0,1-.015-.163l-.017-.332a.237.237,0,0,0-.118-.225.582.582,0,0,0-.225-.031h-.57V38.1h-.364V36.006h.972a.941.941,0,0,1,.4.072Zm-1,.843h.58a.5.5,0,0,0,.275-.065.275.275,0,0,0,.09-.238.25.25,0,0,0-.129-.251.464.464,0,0,0-.2-.037h-.616v.591Z" transform="translate(-1 -1)" fill="#fff" fill-rule="evenodd"/>
</svg>
