<svg xmlns="http://www.w3.org/2000/svg" width="74.629" height="22.383" viewBox="0 0 74.629 22.383">
  <path id="Path_34" data-name="Path 34" d="M11.444.277A11.191,11.191,0,1,0,22.636,11.468,11.192,11.192,0,0,0,11.444.277h0Zm5.132,16.141a.7.7,0,0,1-.96.231c-2.628-1.605-5.936-1.969-9.831-1.078a.7.7,0,0,1-.31-1.36c4.263-.974,7.92-.555,10.87,1.248A.7.7,0,0,1,16.577,16.418Zm1.37-3.047a.873.873,0,0,1-1.2.288,14.689,14.689,0,0,0-11.152-1.3.872.872,0,1,1-.507-1.67,16.327,16.327,0,0,1,12.572,1.487.872.872,0,0,1,.287,1.2Zm.118-3.173c-3.607-2.142-9.558-2.339-13-1.294a1.047,1.047,0,1,1-.608-2C8.408,5.7,14.98,5.932,19.133,8.4a1.047,1.047,0,1,1-1.068,1.8Zm12.637.411c-1.932-.461-2.276-.784-2.276-1.464,0-.642.6-1.074,1.5-1.074a4.392,4.392,0,0,1,2.641,1,.128.128,0,0,0,.179-.028l.944-1.33a.127.127,0,0,0-.024-.172,5.709,5.709,0,0,0-3.711-1.286c-2.086,0-3.544,1.252-3.544,3.044,0,1.921,1.258,2.6,3.431,3.126,1.848.426,2.161.783,2.161,1.42,0,.707-.631,1.147-1.646,1.147a4.444,4.444,0,0,1-3.078-1.271.131.131,0,0,0-.092-.031.125.125,0,0,0-.087.044L26.043,15a.127.127,0,0,0,.012.176,6.307,6.307,0,0,0,4.26,1.633c2.248,0,3.7-1.228,3.7-3.13,0-1.6-.957-2.493-3.31-3.066l0,0ZM39.1,8.7a3.035,3.035,0,0,0-2.434,1.17V8.988a.126.126,0,0,0-.126-.127H34.812a.126.126,0,0,0-.126.127v9.836a.127.127,0,0,0,.126.127h1.731a.127.127,0,0,0,.126-.127v-3.1a3.113,3.113,0,0,0,2.434,1.1,3.733,3.733,0,0,0,3.644-4.059A3.73,3.73,0,0,0,39.1,8.7h0Zm1.632,4.059a2.086,2.086,0,0,1-2.033,2.3,2.15,2.15,0,0,1-2.075-2.3,2.15,2.15,0,0,1,2.075-2.3,2.109,2.109,0,0,1,2.033,2.3ZM47.444,8.7a4.067,4.067,0,1,0,4.144,4.059A4.08,4.08,0,0,0,47.444,8.7Zm0,6.377a2.2,2.2,0,0,1-2.176-2.318,2.149,2.149,0,0,1,2.148-2.29A2.207,2.207,0,0,1,49.6,12.79,2.154,2.154,0,0,1,47.444,15.079Zm9.124-6.218h-1.9V6.914a.126.126,0,0,0-.126-.127H52.807a.127.127,0,0,0-.127.127V8.861h-.831a.126.126,0,0,0-.126.127v1.487a.126.126,0,0,0,.126.127h.831V14.45a2.058,2.058,0,0,0,2.3,2.343,3.152,3.152,0,0,0,1.62-.4.124.124,0,0,0,.064-.11V14.863a.126.126,0,0,0-.06-.107.123.123,0,0,0-.123-.005,2.184,2.184,0,0,1-1.016.245c-.555,0-.8-.253-.8-.817V10.6h1.9a.126.126,0,0,0,.126-.127V8.988a.123.123,0,0,0-.124-.127h0Zm6.634.008V8.629c0-.7.27-1.017.874-1.017a2.924,2.924,0,0,1,.976.18.126.126,0,0,0,.166-.121V6.214a.125.125,0,0,0-.09-.121,4.74,4.74,0,0,0-1.438-.207c-1.6,0-2.443.9-2.443,2.6v.366h-.831a.127.127,0,0,0-.127.127v1.495a.127.127,0,0,0,.127.127h.831v5.934a.127.127,0,0,0,.127.127H63.1a.126.126,0,0,0,.127-.127V10.6h1.616l2.475,5.934c-.281.623-.557.747-.934.747a1.986,1.986,0,0,1-.954-.271.138.138,0,0,0-.1-.009.126.126,0,0,0-.075.068l-.587,1.287a.126.126,0,0,0,.055.164,3.641,3.641,0,0,0,1.847.473c1.278,0,1.985-.6,2.606-2.2l3-7.756a.127.127,0,0,0-.116-.173h-1.8a.127.127,0,0,0-.12.085L68.3,14.224,66.275,8.95a.126.126,0,0,0-.118-.082H63.2Zm-3.846-.008H57.625a.127.127,0,0,0-.127.127v7.548a.127.127,0,0,0,.127.127h1.731a.127.127,0,0,0,.127-.127V8.988a.127.127,0,0,0-.127-.127h0ZM58.5,5.424a1.241,1.241,0,1,0,1.24,1.24A1.241,1.241,0,0,0,58.5,5.424Zm15.158,5.864a1.221,1.221,0,1,1,1.224-1.225,1.213,1.213,0,0,1-1.224,1.225Zm.007-2.321a1.1,1.1,0,1,0,1.089,1.1,1.089,1.089,0,0,0-1.089-1.1Zm.27,1.221.345.482h-.291l-.31-.442h-.266v.442h-.243V9.392h.569c.3,0,.493.152.493.408a.379.379,0,0,1-.3.388Zm-.206-.577h-.317v.4h.317c.158,0,.253-.077.253-.2S73.886,9.612,73.728,9.612Z" transform="translate(-0.253 -0.277)" fill="#fff"/>
</svg>
